…
    ## # A tibble: 0 × 5
    ## # ℹ 5 variables: series <dbl>, episode <dbl>, baker <chr>, technical <dbl>,
    ## #   result <chr>

``` r
print(bakers)
```

    ## # A tibble: 120 × 6
    ##    `Baker Name`  Series `Baker Age` `Baker Occupation` Hometown Baker_First_Name
    ##    <chr>          <dbl>       <dbl> <chr>              <chr>    <chr>           
    ##  1 Ali Imdad          4          25 Charity worker     Saltley… Ali             
    ##  2 Alice Fevron…     10          28 Geography teacher  Essex    Alice           
    ##  3 Alvin Magall…      6          37 Nurse              Brackne… Alvin           
    ##  4 Amelia LeBru…     10          24 Fashion designer   Halifax  Amelia          
    ##  5 Andrew Smyth       7          25 Aerospace engineer Derby /… Andrew          
    ##  6 Annetha Mills      1          30 Midwife            Essex    Annetha         
    ##  7 Antony Amour…      9          30 Banker             London   Antony          
    ##  8 Beca Lyne-Pi…      4          31 Military Wives' C… Aldersh… Beca            
    ##  9 Ben Frazer         2          31 Graphic Designer   Northam… Ben             
    ## 10 Benjamina Eb…      7          23 Teaching assistant South L… Benjamina       
    ## # ℹ 110 more rows
…
Now, we creat the star baker and winner table

``` r
star_baker_winner_table <- results |>
  filter(series >= 5 & series <= 10) |>   # episode in Seasons 5 through 10
  filter(result == "STAR BAKER" | result == "WINNER") |>  
  select(series, episode, baker, result) |>  
  arrange(series, episode)  

print(star_baker_winner_table)
```

    ## # A tibble: 60 × 4
    ##    series episode baker   result    
    ##     <dbl>   <dbl> <chr>   <chr>     
    ##  1      5       1 Nancy   STAR BAKER
    ##  2      5       2 Richard STAR BAKER
    ##  3      5       3 Luis    STAR BAKER
    ##  4      5       4 Richard STAR BAKER
    ##  5      5       5 Kate    STAR BAKER
    ##  6      5       6 Chetna  STAR BAKER
    ##  7      5       7 Richard STAR BAKER
    ##  8      5       8 Richard STAR BAKER
    ##  9      5       9 Richard STAR BAKER
    ## 10      5      10 Nancy   WINNER    
    ## # ℹ 50 more rows

Now, I would like to use frequency table to analyze if there were any
predictable overall winners

``` r
baker_frequency <- star_baker_winner_table |>
  group_by(baker) |>
  summarise(frequency = n()) |> 
  arrange(desc(frequency))  

print(baker_frequency)
```

    ## # A tibble: 32 × 2
    ##    baker   frequency
    ##    <chr>       <int>
    ##  1 Richard         5
    ##  2 Candice         4
    ##  3 Nadiya          4
    ##  4 Steph           4
    ##  5 Ian             3
    ##  6 Rahul           3
    ##  7 Sophie          3
    ##  8 Steven          3
    ##  9 Alice           2
    ## 10 Andrew          2
    ## # ℹ 22 more rows
…
